{
  "tasks":[
    {
      "id":8083366,
      "name":"Programming",
      "billable_by_default":true,
      "default_hourly_rate":100.0,
      "is_default":true,
      "is_active":true,
      "created_at":"2017-06-26T20:41:00Z",
      "updated_at":"2017-06-26T21:14:07Z"
    },
    {
      "id":8083365,
      "name":"Graphic Design",
      "billable_by_default":true,
      "default_hourly_rate":100.0,
      "is_default":true,
      "is_active":true,
      "created_at":"2017-06-26T20:41:00Z",
      "updated_at":"2017-06-26T21:14:02Z"
    }
  ],
  "per_page":3,
  "total_pages":2,
  "total_entries":5,
  "next_page":null,
  "previous_page":1,
  "page":2,
  "links":{
    "first":"https://api.harvestapp.com/v2/tasks?page=1&per_page=3",
    "next":null,
    "previous":"https://api.harvestapp.com/v2/tasks?page=1&per_page=3",
    "last":"https://api.harvestapp.com/v2/tasks?page=1&per_page=3"
  }
}
